TerraclimateR
…
Integration into Tidy Workflow

 Transformations (Examples)

Code

nc_df %>% 
  group_by(id, month, variable) %>% 
  summarise(monthly_mean = mean(value), .groups = "drop") %>% 
  pivot_wider(values_from = monthly_mean, names_from = variable)

## # A tibble: 60 × 4
##    id        month     ppt  tmin
##    <chr>     <fct>   <dbl> <dbl>
##  1 Cartagena Jan     3.22   22.7
##  2 Cartagena Feb     0.778  22.9
##  3 Cartagena Mar     5.83   23.5
##  4 Cartagena Apr   103.     24.1
##  5 Cartagena May   160.     24.3
##  6 Cartagena Jun   160.     24.4
##  7 Cartagena Jul   117.     24.2
##  8 Cartagena Aug   184.     24.4
##  9 Cartagena Sep   149.     24.3
## 10 Cartagena Oct   240.     23.9
## # ℹ 50 more rows

Code

nc_df %>% group_by(id, year, variable) %>% summarize(yearly_sum = sum(value), .groups = "drop")

## # A tibble: 650 × 4
##    id         year variable yearly_sum
##    <chr>     <int> <fct>         <dbl>
##  1 Cartagena  1958 ppt           1105.
##  2 Cartagena  1958 tmin           280.
##  3 Cartagena  1959 ppt            960.
##  4 Cartagena  1959 tmin           270.
##  5 Cartagena  1960 ppt           1525.
##  6 Cartagena  1960 tmin           276.
##  7 Cartagena  1961 ppt           1256.
##  8 Cartagena  1961 tmin           273.
##  9 Cartagena  1962 ppt           1262 
## 10 Cartagena  1962 tmin           270.
## # ℹ 640 more rows
…
